Introduction to hypothesis testing for diversity • breakaway
…
Don’t freak out! Those are wide error bars, but nothing went wrong –
it’s just really hard to estimate the true number of unknown species in
soil. breakaway was developed to deal with this, and to
make sure that we account for that uncertainty when we do inference.

We can get a table of the estimates and their uncertainties as
follows:

summary(richness_soil) %>% tibble::as_tibble()

## # A tibble: 32 × 7
##    estimate  error lower  upper sample_names name      model            
##       <dbl>  <dbl> <dbl>  <dbl> <chr>        <chr>     <chr>            
##  1    5257.  203.  4918.  5719. S009         breakaway Kemp             
##  2    5343. 2252.  4391. 18132. S204         breakaway Kemp             
##  3    4609.  978.  3461.  7662. S012         breakaway Kemp             
##  4    5446. 1393.  4218. 10831. S207         breakaway Kemp             
##  5    5359.  143.  5115.  5680. S202         breakaway Kemp             
##  6    3882.  181.  3580.  4297. S007         breakaway Kemp             
##  7    4906. 4787.  3213. 33688. S022         breakaway Kemp             
##  8    5215.  343.  4652.  6011. S024         breakaway Negative Binomial
##  9    4509.   98.9 4331.  4720. S032         breakaway Kemp             
## 10    5070.  114.  4873.  5321. S212         breakaway Kemp             
## # ℹ 22 more rows
…
We again run DivNet and extract estimates of Shannon diversity.

richness_days_1_2 <- subset_soil_days_1_2 %>% 
  breakaway

combined_richness_days_1_2 <- meta_days_1_2 %>%
  dplyr::left_join(summary(richness_days_1_2),
            by = "sample_names")
combined_richness_days_1_2

## # A tibble: 48 × 12
##    Plants DayAmdmt Amdmt ID    Day   sample_names estimate error lower  upper
##    <chr>  <chr>    <chr> <chr> <chr> <chr>           <dbl> <dbl> <dbl>  <dbl>
##  1 1      01       1     D     0     S009            5257.  203. 4918.  5719.
##  2 1      21       1     D     2     S204            5343. 2252. 4391. 18132.
##  3 0      11       1     B     1     S112            5165. 4017. 3537. 28314.
##  4 0      01       1     B     0     S012            4609.  978. 3461.  7662.
##  5 1      11       1     D     1     S134            5498.  212. 5141.  5980.
##  6 0      21       1     B     2     S207            5446. 1393. 4218. 10831.
##  7 0      21       1     B     2     S202            5359.  143. 5115.  5680.
##  8 0      01       1     B     0     S007            3882.  181. 3580.  4297.
##  9 1      11       1     D     1     S139            5137.  251. 4740.  5741.
## 10 0      11       1     B     1     S122            5755. 4281. 4401. 32261.
## # ℹ 38 more rows
## # ℹ 2 more variables: name <chr>, model <chr>
…
